Sample	2_K23_IP1,B	2_K23_IP2,B	2OHT_K23_IP1,B	2OHT_K23_IP2,B	4OHT_K23_IP1,B	4OHT_K23_IP2,B	2_K14,B	2OHT_K14,B	4OHT_K14,B
2-H3	1	1	0	0	0	0	1	0	0
2OHT-H3	0	0	1	1	0	0	0	1	0
4OHT-H3	0	0	0	0	1	1	0	0	1
2-K14	0	0	0	0	0	0	2	0	0
2OHT-K14	0	0	0	0	0	0	0	2	0
4OHT-K14	0	0	0	0	0	0	0	0	2
2-K23_IP1	2	0	0	0	0	0	0	0	0
2-K23_IP2	0	2	0	0	0	0	0	0	0
2OHT-K23_IP1	0	0	2	0	0	0	0	0	0
2OHT-K23_IP2	0	0	0	2	0	0	0	0	0
4OHT-K23_IP1	0	0	0	0	2	0	0	0	0
4OHT-K23-IP2	0	0	0	0	0	2	0	0	0
