Samples	K23-2-4OHT	K14-2-4OHT	K23-2OHT	K14-2OHT	K23-2	K14-2	K23-4OHT	K14-4OHT	H3-2	H3-2OHT	H3-4OHT	H3-2-4OHT
output/pipeline/alignment/2-H3/2-H3.sorted.dup.bam	2	2	0	0	2	2	0	0	1	0	0	1
output/pipeline/alignment/2-K14/2-K14.sorted.dup.bam	0	1	0	0	0	1	0	0	0	0	0	0
output/pipeline/alignment/2-K23_IP1/2-K23_IP1.sorted.dup.bam	1	0	0	0	1	0	0	0	0	0	0	0
output/pipeline/alignment/2-K23_IP2/2-K23_IP2.sorted.dup.bam	1	0	0	0	1	0	0	0	0	0	0	0
output/pipeline/alignment/2OHT-H3/2OHT-H3.sorted.dup.bam	0	0	2	2	0	0	0	0	0	1	0	0
output/pipeline/alignment/2OHT-K14/2OHT-K14.sorted.dup.bam	0	0	0	1	0	0	0	0	0	0	0	0
output/pipeline/alignment/2OHT-K23_IP1/2OHT-K23_IP1.sorted.dup.bam	0	0	1	0	0	0	0	0	0	0	0	0
output/pipeline/alignment/2OHT-K23_IP2/2OHT-K23_IP2.sorted.dup.bam	0	0	1	0	0	0	0	0	0	0	0	0
output/pipeline/alignment/4OHT-H3/4OHT-H3.sorted.dup.bam	2	2	0	0	0	0	2	2	0	0	1	1
output/pipeline/alignment/4OHT-K14/4OHT-K14.sorted.dup.bam	0	1	0	0	0	0	0	1	0	0	0	0
output/pipeline/alignment/4OHT-K23_IP1/4OHT-K23_IP1.sorted.dup.bam	1	0	0	0	0	0	1	0	0	0	0	0
output/pipeline/alignment/4OHT-K23-IP2/4OHT-K23-IP2.sorted.dup.bam	1	0	0	0	0	0	1	0	0	0	0	0


